<robot>
  <link name="LedBlau">
   <inertial>
    <mass value="1" />
            <com xyz="0.5 0.5 0.5" />
            <inertia ixx="1" ixy="0.0" ixz="0.0" iyy="1" iyz="0.0" izz="1" />
        </inertial>

        <visual>
            <origin xyz="0.5 0.5 0.5" rpy="0 0 0" />
            <geometry>
                <sphere radius="0.01" />
            </geometry>
        </visual>
        <collision>
            <origin xyz="0.5 0.5 0.5" rpy="0 0 0" />
            <geometry>
                <sphere radius="0.01" />
            </geometry>
        </collision>
    </link>

	 <gazebo reference="chassis">
	  <light type="spot" name="front_spot">
	    <pose>1 0 0 0 0 0</pose>
	    <diffuse>0 1 0 1</diffuse>
	    <attenuation>
	      <range>10</range>
	      <constant>0.2</constant>
	      <linear>0.01</linear>
	    </attenuation>
	    <direction>1 0 0</direction>
	  </light>
	</gazebo>

	<joint name="LedBlau_joint" type="fixed">
		<origin xyz="0.1 0 ${chassis_height + 0.05}" rpy="0 0 0"/>
		<parent link="Kamera_Halterung"/>
		<child link="LedBlau"/>
	</joint>

</robot>
